<svg width="38" height="28" viewBox="0 0 38 28" fill="none" xmlns="http://www.w3.org/2000/svg">
<circle cx="26" cy="14" r="12" fill="#FFCA06"/>
<path d="M31 8H23C22.4696 8 21.9609 8.21071 21.5858 8.58579C21.2107 8.96086 21 9.46957 21 10V18C21 18.5304 21.2107 19.0391 21.5858 19.4142C21.9609 19.7893 22.4696 20 23 20H31C31.1768 20 31.3464 19.9298 31.4714 19.8047C31.5964 19.6797 31.6667 19.5101 31.6667 19.3333V8.66667C31.6667 8.48986 31.5964 8.32029 31.4714 8.19526C31.3464 8.07024 31.1768 8 31 8ZM23 18.6667C22.8232 18.6667 22.6536 18.5964 22.5286 18.4714C22.4036 18.3464 22.3333 18.1768 22.3333 18C22.3333 17.8232 22.4036 17.6536 22.5286 17.5286C22.6536 17.4036 22.8232 17.3333 23 17.3333H30.3333V18.6667H23Z" fill="white"/>
<circle cx="14" cy="14" r="13" fill="#FFCA06" stroke="white" stroke-width="2"/>
<path d="M19 8H11C10.4696 8 9.96086 8.21071 9.58579 8.58579C9.21071 8.96086 9 9.46957 9 10V18C9 18.5304 9.21071 19.0391 9.58579 19.4142C9.96086 19.7893 10.4696 20 11 20H19C19.1768 20 19.3464 19.9298 19.4714 19.8047C19.5964 19.6797 19.6667 19.5101 19.6667 19.3333V8.66667C19.6667 8.48986 19.5964 8.32029 19.4714 8.19526C19.3464 8.07024 19.1768 8 19 8ZM11 18.6667C10.8232 18.6667 10.6536 18.5964 10.5286 18.4714C10.4036 18.3464 10.3333 18.1768 10.3333 18C10.3333 17.8232 10.4036 17.6536 10.5286 17.5286C10.6536 17.4036 10.8232 17.3333 11 17.3333H18.3333V18.6667H11Z" fill="white"/>
</svg>
